Lecture 11
…
## 
## -- Column specification --------------------------------------------------------
## cols(
##   source = col_character(),
##   id_str = col_double(),
##   text = col_character(),
##   created_at = col_datetime(format = ""),
##   retweet_count = col_double(),
##   in_reply_to_user_id_str = col_double(),
##   favorite_count = col_double(),
##   is_retweet = col_logical()
## )

## # A tibble: 16,780 x 8
##    source   id_str text       created_at          retweet_count in_reply_to_use~
##    <chr>     <dbl> <chr>      <dttm>                      <dbl>            <dbl>
##  1 Twitte~ 6.83e17 "I would ~ 2015-12-31 23:21:49          6776               NA
##  2 Twitte~ 6.83e17 "Do you b~ 2015-12-31 23:11:35          2755               NA
##  3 Twitte~ 6.83e17 "THANK YO~ 2015-12-31 18:51:12          2468               NA
##  4 Twitte~ 6.83e17 "HAPPY BI~ 2015-12-31 16:52:38          2080               NA
##  5 Twitte~ 6.83e17 "I would ~ 2015-12-31 15:07:18          1875               NA
##  6 Twitte~ 6.83e17 "#MakeAme~ 2015-12-31 12:51:35          2285               NA
##  7 Twitte~ 6.83e17 "\"@whisp~ 2015-12-31 11:01:18          1065               NA
##  8 Twitte~ 6.83e17 "\"@deggo~ 2015-12-31 10:53:15          1432               NA
##  9 Twitte~ 6.83e17 "\"@wmsol~ 2015-12-31 10:46:30           676               NA
## 10 Twitte~ 6.83e17 "\"@styli~ 2015-12-31 10:42:47          1321               NA
## # ... with 16,770 more rows, and 2 more variables: favorite_count <dbl>,
## #   is_retweet <lgl>
…
##  3 Twitter Web Client        2150
##  4 Media Studio               154
##  5 Twitter Ads                 97
##  6 Twitter for BlackBerry      94
##  7 Instagram                   70
##  8 Twitter for iPad            58
##  9 Twitter QandA               10
## 10 Periscope                    7
## 11 Neatly For BlackBerry 10     5
## 12 Facebook                     2
## 13 Mobile Web (M5)              2
## 14 TweetDeck                    2
## 15 Twitter Mirror for iPad      1

## # A tibble: 14,128 x 4
##     id_str source  text                                      created_at         
##      <dbl> <chr>   <chr>                                     <dttm>             
##  1 6.83e17 Android "I would like to wish everyone A HAPPY A~ 2015-12-31 23:21:49
##  2 6.83e17 Android "Do you believe that The State Departmen~ 2015-12-31 23:11:35
##  3 6.83e17 iPhone  "THANK YOU ILLINOIS! Let's not forget to~ 2015-12-31 18:51:12
##  4 6.83e17 iPhone  "HAPPY BIRTHDAY to my son, @DonaldJTrump~ 2015-12-31 16:52:38
##  5 6.83e17 Android "I would feel sorry for @JebBush and how~ 2015-12-31 15:07:18
##  6 6.83e17 iPhone  "#MakeAmericaGreatAgain #Trump2016 https~ 2015-12-31 12:51:35
##  7 6.83e17 Android "\"@whispers34: Nevada Poll: Donald Trum~ 2015-12-31 11:01:18
##  8 6.83e17 Android "\"@deggow: Just heard a 25 year old man~ 2015-12-31 10:53:15
##  9 6.83e17 Android "\"@wmsolomon: 'On Point' with Gov. Sara~ 2015-12-31 10:46:30
## 10 6.83e17 Android "\"@stylin1188: Donald Trump is running ~ 2015-12-31 10:42:47
## # ... with 14,118 more rows
…
